<?xml version="1.0" standalone="no"?>
<!DOCTYPE svg PUBLIC "-//W3C//DTD SVG 1.1//EN" "http://www.w3.org/Graphics/SVG/1.1/DTD/svg11.dtd" >
<svg xmlns="http://www.w3.org/2000/svg">
<metadata>Generated by IcoMoon</metadata>
<defs>
<font id="icomoon" horiz-adv-x="1024">
<font-face units-per-em="1024" ascent="960" descent="-64" />
<missing-glyph horiz-adv-x="1024" />
<glyph unicode="&#x20;" horiz-adv-x="512" d="" />
<glyph unicode="&#xe600;" glyph-name="chevron-thin-down" d="M891.802 660.019c13.926 13.722 36.301 13.722 50.125 0s13.875-35.891 0-49.613l-404.89-400.896c-13.824-13.722-36.198-13.722-50.125 0l-404.89 400.896c-13.824 13.722-13.824 35.891 0 49.613 13.875 13.722 36.301 13.722 50.125 0l379.853-365.619 379.802 365.619z" />
<glyph unicode="&#xe615;" glyph-name="facebook-with-circle" d="M512 952.32c-271.462 0-491.52-220.058-491.52-491.52s220.058-491.52 491.52-491.52 491.52 220.058 491.52 491.52-220.058 491.52-491.52 491.52zM628.429 612.659h-73.882c-8.755 0-18.483-11.52-18.483-26.829v-53.35h92.416l-13.978-76.083h-78.438v-228.403h-87.194v228.403h-79.104v76.083h79.104v44.749c0 64.205 44.544 116.378 105.677 116.378h73.882v-80.947z" />
<glyph unicode="&#xe616;" glyph-name="facebook" d="M870.4 921.6h-716.8c-56.32 0-102.4-46.080-102.4-102.4v-716.8c0-56.371 46.080-102.4 102.4-102.4h358.4v358.4h-102.4v126.72h102.4v104.96c0 110.797 62.054 188.621 192.819 188.621l92.314-0.102v-133.376h-61.286c-50.893 0-70.246-38.195-70.246-73.626v-86.528h131.482l-29.082-126.669h-102.4v-358.4h204.8c56.32 0 102.4 46.029 102.4 102.4v716.8c0 56.32-46.080 102.4-102.4 102.4z" />
<glyph unicode="&#xe617;" glyph-name="google-with-circle" d="M512 952.32c-271.462 0-491.52-220.058-491.52-491.52s220.058-491.52 491.52-491.52 491.52 220.058 491.52 491.52-220.058 491.52-491.52 491.52zM483.686 249.805c-30.874-15.002-64.102-16.589-76.954-16.589-2.458 0-3.84 0-3.84 0s-1.178 0-2.765 0c-20.070 0-119.962 4.608-119.962 95.59 0 89.395 108.8 96.41 142.131 96.41h0.87c-19.251 25.702-15.258 51.61-15.258 51.61-1.69-0.102-4.147-0.205-7.168-0.205-12.544 0-36.762 1.997-57.549 15.411-25.498 16.384-38.4 44.288-38.4 82.893 0 109.107 119.142 113.51 120.32 113.613h118.989v-2.611c0-13.312-23.91-15.923-40.192-18.125-5.53-0.819-16.64-1.894-19.763-3.482 30.157-16.128 35.021-41.421 35.021-79.104 0-42.906-16.794-65.587-34.611-81.51-11.059-9.882-19.712-17.613-19.712-28.006 0-10.189 11.878-20.582 25.702-32.717 22.579-19.917 53.555-47.002 53.555-92.723 0-47.258-20.326-81.050-60.416-100.454zM742.4 460.8h-76.8v-76.8h-51.2v76.8h-76.8v51.2h76.8v76.8h51.2v-76.8h76.8v-51.2zM421.018 401.92c-2.662 0-5.325-0.102-8.038-0.307-22.733-1.69-43.725-10.189-58.88-24.013-15.053-13.619-22.733-30.822-21.658-48.179 2.304-36.403 41.37-57.702 88.832-54.323 46.694 3.379 77.824 30.31 75.571 66.714-2.15 34.202-31.898 60.109-75.827 60.109zM465.766 599.808c-12.39 43.52-32.358 56.422-63.386 56.422-3.328 0-6.707-0.512-9.933-1.382-13.466-3.84-24.166-15.053-30.106-31.744-6.093-16.896-6.451-34.509-1.229-54.579 9.472-35.891 34.97-61.901 60.672-61.901 3.379 0 6.758 0.41 9.933 1.382 28.109 7.885 45.722 50.79 34.048 91.802z" />
<glyph unicode="&#xe618;" glyph-name="google" d="M101.837 686.643c0-76.493 25.549-131.686 75.878-164.096 41.267-26.624 89.088-30.618 113.971-30.618 6.042 0 10.906 0.307 14.285 0.512 0 0-7.885-51.405 30.208-102.195h-1.741c-65.997 0-281.242-13.773-281.242-190.822 0-180.019 197.683-189.184 237.363-189.184 3.123 0 4.966 0.102 4.966 0.102 0.41 0 3.226-0.102 8.090-0.102 25.446 0 91.238 3.174 152.32 32.922 79.258 38.4 119.45 105.421 119.45 198.912 0 90.317-61.235 144.077-105.933 183.398-27.29 24.013-50.893 44.698-50.893 64.819 0 20.48 17.254 35.891 39.014 55.398 35.277 31.488 68.557 76.39 68.557 161.28 0 74.598-9.677 124.723-69.325 156.518 6.195 3.174 28.211 5.478 39.066 7.014 32.307 4.403 79.565 9.421 79.565 35.789v5.069h-235.469c-2.355-0.102-238.131-8.806-238.131-224.717zM481.946 225.178c4.506-71.987-57.088-125.082-149.606-131.789-93.952-6.912-171.264 35.379-175.77 107.315-2.202 34.611 13.005 68.403 42.752 95.386 30.157 27.29 71.578 44.186 116.634 47.514 5.325 0.307 10.598 0.614 15.872 0.614 86.989-0.051 145.869-51.149 150.118-119.040zM420.454 735.949c23.091-81.306-11.776-166.195-67.379-181.914-6.4-1.792-12.954-2.662-19.661-2.662-50.893 0-101.325 51.507-120.064 122.522-10.445 39.731-9.574 74.65 2.406 108.134 11.725 33.024 32.922 55.194 59.546 62.72 6.4 1.792 13.005 2.714 19.712 2.714 61.44 0 100.966-25.498 125.44-111.514zM819.2 563.2v153.6h-102.4v-153.6h-153.6v-102.4h153.6v-153.6h102.4v153.6h153.6v102.4h-153.6z" />
<glyph unicode="&#xe900;" glyph-name="mobile" d="M717.005 972.8h-410.010c-56.422 0-102.195-45.773-102.195-102.195v-819.558c0-56.474 45.773-102.246 102.195-102.246h409.958c56.474 0 102.246 45.773 102.246 102.195v819.61c0 56.422-45.773 102.195-102.195 102.195zM512 0c-35.328 0-64 22.886-64 51.2s28.672 51.2 64 51.2 64-22.886 64-51.2-28.672-51.2-64-51.2zM716.8 153.6h-409.6v716.8h409.6v-716.8z" />
<glyph unicode="&#xe901;" glyph-name="add-circle-outline" d="M554.667 640h-85.333v-170.667h-170.667v-85.333h170.667v-170.667h85.333v170.667h170.667v85.333h-170.667v170.667zM512 853.334c-235.733 0-426.667-190.933-426.667-426.667s190.933-426.667 426.667-426.667 426.667 190.933 426.667 426.667-190.933 426.667-426.667 426.667zM512 85.334c-188.16 0-341.333 153.173-341.333 341.333s153.173 341.333 341.333 341.333 341.333-153.173 341.333-341.333-153.173-341.333-341.333-341.333z" />
<glyph unicode="&#xe902;" glyph-name="instagram-with-circle" d="M665.6 460.8c0-84.838-68.762-153.6-153.6-153.6s-153.6 68.762-153.6 153.6c0 8.755 0.922 17.306 2.509 25.6h-53.709v-204.646c0-14.234 11.52-25.754 25.754-25.754h358.144c14.182 0 25.702 11.52 25.702 25.754v204.646h-53.709c1.587-8.294 2.509-16.845 2.509-25.6zM512 358.4c56.525 0 102.4 45.875 102.4 102.4s-45.875 102.4-102.4 102.4-102.4-45.875-102.4-102.4 45.875-102.4 102.4-102.4zM634.88 568.32h61.389c8.499 0 15.411 6.912 15.411 15.36v61.389c0 8.499-6.912 15.411-15.411 15.411h-61.389c-8.499 0-15.411-6.912-15.411-15.411v-61.389c0.051-8.448 6.963-15.36 15.411-15.36zM512 952.32c-271.462 0-491.52-220.058-491.52-491.52s220.058-491.52 491.52-491.52c271.462 0 491.52 220.058 491.52 491.52s-220.058 491.52-491.52 491.52zM768 261.683c0-31.283-25.6-56.883-56.883-56.883h-398.234c-31.283 0-56.883 25.6-56.883 56.883v398.234c0 31.283 25.6 56.883 56.883 56.883h398.234c31.283 0 56.883-25.6 56.883-56.883v-398.234z" />
<glyph unicode="&#xe903;" glyph-name="instagram" d="M870.4 921.6h-716.8c-56.32 0-102.4-46.080-102.4-102.4v-716.8c0-56.371 46.080-102.4 102.4-102.4h716.8c56.32 0 102.4 46.029 102.4 102.4v716.8c0 56.32-46.080 102.4-102.4 102.4zM511.181 178.022c156.621 0 283.546 127.027 283.546 283.597 0 17.306-2.202 33.997-5.274 50.381h80.947v-369.459c0-19.558-15.872-35.328-35.482-35.328h-645.837c-19.61 0-35.482 15.77-35.482 35.328v369.459h79.309c-3.123-16.384-5.325-33.075-5.325-50.381 0-156.621 127.027-283.597 283.597-283.597zM333.978 461.619c0 97.894 79.36 177.203 177.254 177.203 97.843 0 177.254-79.309 177.254-177.203s-79.411-177.254-177.254-177.254c-97.946 0-177.254 79.36-177.254 177.254zM834.918 665.6h-82.688c-19.558 0-35.43 15.974-35.43 35.43v82.79c0 19.558 15.872 35.379 35.379 35.379h82.688c19.661 0 35.533-15.821 35.533-35.379v-82.739c0-19.507-15.872-35.482-35.482-35.482z" />
</font></defs></svg>